<?xml version="1.0" encoding="UTF-8" standalone="no"?>
<!-- Generator: Adobe Illustrator 16.0.0, SVG Export Plug-In . SVG Version: 6.00 Build 0)  -->

<svg
   version="1.1"
   id="Capa_1"
   x="0px"
   y="0px"
   width="481.045px"
   height="481.045px"
   viewBox="0 0 481.045 481.045"
   style="enable-background:new 0 0 481.045 481.045;"
   xml:space="preserve"
   inkscape:version="1.2.1 (9c6d41e410, 2022-07-14)"
   sodipodi:docname="ico_recording_error_n1.svg"
   xmlns:inkscape="http://www.inkscape.org/namespaces/inkscape"
   xmlns:sodipodi="http://sodipodi.sourceforge.net/DTD/sodipodi-0.dtd"
   xmlns="http://www.w3.org/2000/svg"
   xmlns:svg="http://www.w3.org/2000/svg"
   xmlns:rdf="http://www.w3.org/1999/02/22-rdf-syntax-ns#"
   xmlns:cc="http://creativecommons.org/ns#"
   xmlns:dc="http://purl.org/dc/elements/1.1/"><metadata
     id="metadata41"><rdf:RDF><cc:Work
         rdf:about=""><dc:format>image/svg+xml</dc:format><dc:type
           rdf:resource="http://purl.org/dc/dcmitype/StillImage" /></cc:Work></rdf:RDF></metadata><defs
     id="defs39" /><sodipodi:namedview
     pagecolor="#ffffff"
     bordercolor="#666666"
     borderopacity="1"
     objecttolerance="10"
     gridtolerance="10"
     guidetolerance="10"
     inkscape:pageopacity="0"
     inkscape:pageshadow="2"
     inkscape:window-width="1694"
     inkscape:window-height="1022"
     id="namedview37"
     showgrid="false"
     inkscape:zoom="1.3825878"
     inkscape:cx="186.6066"
     inkscape:cy="262.55114"
     inkscape:window-x="0"
     inkscape:window-y="0"
     inkscape:window-maximized="0"
     inkscape:current-layer="Capa_1"
     inkscape:showpageshadow="2"
     inkscape:pagecheckerboard="0"
     inkscape:deskcolor="#d1d1d1" /><g
     id="g3"
     style="fill:#{sdcol(icon)};fill-opacity:1"
     transform="matrix(1.2852,0,0,1.2852,-5.7365961,-4.1253899)"><path
       d="m 190.95079,374.79772 c -20.91502,0 -37.86951,-16.95595 -37.86951,-37.87097 0,-20.91207 16.95449,-37.86617 37.86951,-37.86617 20.91207,0 37.86618,16.9541 37.86618,37.86617 0,20.91502 -16.95411,37.87097 -37.86618,37.87097 z m 50.0369,-310.080656 c -3.20389,25.526991 -26.71547,149.802096 -34.48905,190.639696 -1.43457,7.55102 -8.03619,13.03257 -15.72479,13.03257 h -0.29427 c -7.96115,0 -14.76252,-5.65186 -16.24602,-13.46993 C 166.36106,213.4653 142.88476,89.082416 139.73275,63.961152 135.937,33.708887 159.54791,6.9577235 190.03008,6.9577235 220.9224,6.9596035 244.8467,34.068266 241.00167,64.717064 Z"
       id="path5"
       style="fill:#{sdcol(icon)};fill-opacity:1" /></g><g
     id="g7" /><g
     id="g9" /><g
     id="g11" /><g
     id="g13" /><g
     id="g15" /><g
     id="g17" /><g
     id="g19" /><g
     id="g21" /><g
     id="g23" /><g
     id="g25" /><g
     id="g27" /><g
     id="g29" /><g
     id="g31" /><g
     id="g33" /><g
     id="g35" /></svg>
